^C:\USERS\TOMMY\SOURCES\DATASTRUCTURES\L5 DIJKSTRA\L5 DIJKSTRA\STUB.CPP
C:\USERS\TOMMY\SOURCES\DATASTRUCTURES\L5 DIJKSTRA\L5 DIJKSTRA\DEBUG\VC140.PDB
C:\USERS\TOMMY\SOURCES\DATASTRUCTURES\L5 DIJKSTRA\L5 DIJKSTRA\DEBUG\VC140.IDB
C:\USERS\TOMMY\SOURCES\DATASTRUCTURES\L5 DIJKSTRA\L5 DIJKSTRA\DEBUG\STUB.OBJ
^C:\USERS\TOMMY\SOURCES\DATASTRUCTURES\L5 DIJKSTRA\L5 DIJKSTRA\DIJKSTRA.CPP
C:\USERS\TOMMY\SOURCES\DATASTRUCTURES\L5 DIJKSTRA\L5 DIJKSTRA\DEBUG\VC140.PDB
C:\USERS\TOMMY\SOURCES\DATASTRUCTURES\L5 DIJKSTRA\L5 DIJKSTRA\DEBUG\VC140.IDB
C:\USERS\TOMMY\SOURCES\DATASTRUCTURES\L5 DIJKSTRA\L5 DIJKSTRA\DEBUG\DIJKSTRA.OBJ
