^C:\USERS\TOMMY\SOURCES\DATASTRUCTURES\A3 ARRAY2D\A3 ARRAY2D\EXCEPTION.CPP
/c /ZI /nologo /W3 /WX- /Od /Oy- /D WIN32 /D _DEBUG /D _CONSOLE /D _UNICODE /D UNICODE /Gm /EHsc /RTC1 /MDd /GS /fp:precise /Zc:wchar_t /Zc:forScope /Zc:inline /Fo"DEBUG\\" /Fd"DEBUG\VC140.PDB" /Gd /TP /analyze- C:\USERS\TOMMY\SOURCES\DATASTRUCTURES\A3 ARRAY2D\A3 ARRAY2D\EXCEPTION.CPP
^C:\USERS\TOMMY\SOURCES\DATASTRUCTURES\A3 ARRAY2D\A3 ARRAY2D\STUB.CPP
/c /ZI /nologo /W3 /WX- /Od /Oy- /D WIN32 /D _DEBUG /D _CONSOLE /D _UNICODE /D UNICODE /Gm /EHsc /RTC1 /MDd /GS /fp:precise /Zc:wchar_t /Zc:forScope /Zc:inline /Fo"DEBUG\\" /Fd"DEBUG\VC140.PDB" /Gd /TP /analyze- C:\USERS\TOMMY\SOURCES\DATASTRUCTURES\A3 ARRAY2D\A3 ARRAY2D\STUB.CPP
