^C:\USERS\TOMMY\SOURCE\REPOS\DATASTRUCTURES\L3 FREECELL\L3 FREECELL\CARD.CPP
/c /ZI /nologo /W3 /WX- /Od /D _DEBUG /D _CONSOLE /D _UNICODE /D UNICODE /Gm /EHsc /RTC1 /MDd /GS /fp:precise /Zc:wchar_t /Zc:forScope /Zc:inline /Fo"X64\DEBUG\\" /Fd"X64\DEBUG\VC140.PDB" /Gd /TP C:\USERS\TOMMY\SOURCE\REPOS\DATASTRUCTURES\L3 FREECELL\L3 FREECELL\CARD.CPP
^C:\USERS\TOMMY\SOURCE\REPOS\DATASTRUCTURES\L3 FREECELL\L3 FREECELL\DECK.CPP
/c /ZI /nologo /W3 /WX- /Od /D _DEBUG /D _CONSOLE /D _UNICODE /D UNICODE /Gm /EHsc /RTC1 /MDd /GS /fp:precise /Zc:wchar_t /Zc:forScope /Zc:inline /Fo"X64\DEBUG\\" /Fd"X64\DEBUG\VC140.PDB" /Gd /TP C:\USERS\TOMMY\SOURCE\REPOS\DATASTRUCTURES\L3 FREECELL\L3 FREECELL\DECK.CPP
^C:\USERS\TOMMY\SOURCE\REPOS\DATASTRUCTURES\L3 FREECELL\L3 FREECELL\EXCEPTION.CPP
/c /ZI /nologo /W3 /WX- /Od /D _DEBUG /D _CONSOLE /D _UNICODE /D UNICODE /Gm /EHsc /RTC1 /MDd /GS /fp:precise /Zc:wchar_t /Zc:forScope /Zc:inline /Fo"X64\DEBUG\\" /Fd"X64\DEBUG\VC140.PDB" /Gd /TP C:\USERS\TOMMY\SOURCE\REPOS\DATASTRUCTURES\L3 FREECELL\L3 FREECELL\EXCEPTION.CPP
^C:\USERS\TOMMY\SOURCE\REPOS\DATASTRUCTURES\L3 FREECELL\L3 FREECELL\FREECELLGAME.CPP
/c /ZI /nologo /W3 /WX- /Od /D _DEBUG /D _CONSOLE /D _UNICODE /D UNICODE /Gm /EHsc /RTC1 /MDd /GS /fp:precise /Zc:wchar_t /Zc:forScope /Zc:inline /Fo"X64\DEBUG\\" /Fd"X64\DEBUG\VC140.PDB" /Gd /TP C:\USERS\TOMMY\SOURCE\REPOS\DATASTRUCTURES\L3 FREECELL\L3 FREECELL\FREECELLGAME.CPP
^C:\USERS\TOMMY\SOURCE\REPOS\DATASTRUCTURES\L3 FREECELL\L3 FREECELL\FREECELLS.CPP
/c /ZI /nologo /W3 /WX- /Od /D _DEBUG /D _CONSOLE /D _UNICODE /D UNICODE /Gm /EHsc /RTC1 /MDd /GS /fp:precise /Zc:wchar_t /Zc:forScope /Zc:inline /Fo"X64\DEBUG\\" /Fd"X64\DEBUG\VC140.PDB" /Gd /TP C:\USERS\TOMMY\SOURCE\REPOS\DATASTRUCTURES\L3 FREECELL\L3 FREECELL\FREECELLS.CPP
^C:\USERS\TOMMY\SOURCE\REPOS\DATASTRUCTURES\L3 FREECELL\L3 FREECELL\HOMECELLS.CPP
/c /ZI /nologo /W3 /WX- /Od /D _DEBUG /D _CONSOLE /D _UNICODE /D UNICODE /Gm /EHsc /RTC1 /MDd /GS /fp:precise /Zc:wchar_t /Zc:forScope /Zc:inline /Fo"X64\DEBUG\\" /Fd"X64\DEBUG\VC140.PDB" /Gd /TP C:\USERS\TOMMY\SOURCE\REPOS\DATASTRUCTURES\L3 FREECELL\L3 FREECELL\HOMECELLS.CPP
^C:\USERS\TOMMY\SOURCE\REPOS\DATASTRUCTURES\L3 FREECELL\L3 FREECELL\MAIN.CPP
/c /ZI /nologo /W3 /WX- /Od /D _DEBUG /D _CONSOLE /D _UNICODE /D UNICODE /Gm /EHsc /RTC1 /MDd /GS /fp:precise /Zc:wchar_t /Zc:forScope /Zc:inline /Fo"X64\DEBUG\\" /Fd"X64\DEBUG\VC140.PDB" /Gd /TP C:\USERS\TOMMY\SOURCE\REPOS\DATASTRUCTURES\L3 FREECELL\L3 FREECELL\MAIN.CPP
^C:\USERS\TOMMY\SOURCE\REPOS\DATASTRUCTURES\L3 FREECELL\L3 FREECELL\PLAYAREA.CPP
/c /ZI /nologo /W3 /WX- /Od /D _DEBUG /D _CONSOLE /D _UNICODE /D UNICODE /Gm /EHsc /RTC1 /MDd /GS /fp:precise /Zc:wchar_t /Zc:forScope /Zc:inline /Fo"X64\DEBUG\\" /Fd"X64\DEBUG\VC140.PDB" /Gd /TP C:\USERS\TOMMY\SOURCE\REPOS\DATASTRUCTURES\L3 FREECELL\L3 FREECELL\PLAYAREA.CPP
^C:\USERS\TOMMY\SOURCES\DATASTRUCTURES\L3 FREECELL\L3 FREECELL\CARD.CPP
/c /ZI /nologo /W3 /WX- /Od /D _DEBUG /D _CONSOLE /D _UNICODE /D UNICODE /Gm /EHsc /RTC1 /MDd /GS /fp:precise /Zc:wchar_t /Zc:forScope /Zc:inline /Fo"X64\DEBUG\\" /Fd"X64\DEBUG\VC140.PDB" /Gd /TP C:\USERS\TOMMY\SOURCES\DATASTRUCTURES\L3 FREECELL\L3 FREECELL\CARD.CPP
^C:\USERS\TOMMY\SOURCES\DATASTRUCTURES\L3 FREECELL\L3 FREECELL\DECK.CPP
/c /ZI /nologo /W3 /WX- /Od /D _DEBUG /D _CONSOLE /D _UNICODE /D UNICODE /Gm /EHsc /RTC1 /MDd /GS /fp:precise /Zc:wchar_t /Zc:forScope /Zc:inline /Fo"X64\DEBUG\\" /Fd"X64\DEBUG\VC140.PDB" /Gd /TP C:\USERS\TOMMY\SOURCES\DATASTRUCTURES\L3 FREECELL\L3 FREECELL\DECK.CPP
^C:\USERS\TOMMY\SOURCES\DATASTRUCTURES\L3 FREECELL\L3 FREECELL\EXCEPTION.CPP
/c /ZI /nologo /W3 /WX- /Od /D _DEBUG /D _CONSOLE /D _UNICODE /D UNICODE /Gm /EHsc /RTC1 /MDd /GS /fp:precise /Zc:wchar_t /Zc:forScope /Zc:inline /Fo"X64\DEBUG\\" /Fd"X64\DEBUG\VC140.PDB" /Gd /TP C:\USERS\TOMMY\SOURCES\DATASTRUCTURES\L3 FREECELL\L3 FREECELL\EXCEPTION.CPP
^C:\USERS\TOMMY\SOURCES\DATASTRUCTURES\L3 FREECELL\L3 FREECELL\FREECELLGAME.CPP
/c /ZI /nologo /W3 /WX- /Od /D _DEBUG /D _CONSOLE /D _UNICODE /D UNICODE /Gm /EHsc /RTC1 /MDd /GS /fp:precise /Zc:wchar_t /Zc:forScope /Zc:inline /Fo"X64\DEBUG\\" /Fd"X64\DEBUG\VC140.PDB" /Gd /TP C:\USERS\TOMMY\SOURCES\DATASTRUCTURES\L3 FREECELL\L3 FREECELL\FREECELLGAME.CPP
^C:\USERS\TOMMY\SOURCES\DATASTRUCTURES\L3 FREECELL\L3 FREECELL\FREECELLS.CPP
/c /ZI /nologo /W3 /WX- /Od /D _DEBUG /D _CONSOLE /D _UNICODE /D UNICODE /Gm /EHsc /RTC1 /MDd /GS /fp:precise /Zc:wchar_t /Zc:forScope /Zc:inline /Fo"X64\DEBUG\\" /Fd"X64\DEBUG\VC140.PDB" /Gd /TP C:\USERS\TOMMY\SOURCES\DATASTRUCTURES\L3 FREECELL\L3 FREECELL\FREECELLS.CPP
^C:\USERS\TOMMY\SOURCES\DATASTRUCTURES\L3 FREECELL\L3 FREECELL\HOMECELLS.CPP
/c /ZI /nologo /W3 /WX- /Od /D _DEBUG /D _CONSOLE /D _UNICODE /D UNICODE /Gm /EHsc /RTC1 /MDd /GS /fp:precise /Zc:wchar_t /Zc:forScope /Zc:inline /Fo"X64\DEBUG\\" /Fd"X64\DEBUG\VC140.PDB" /Gd /TP C:\USERS\TOMMY\SOURCES\DATASTRUCTURES\L3 FREECELL\L3 FREECELL\HOMECELLS.CPP
^C:\USERS\TOMMY\SOURCES\DATASTRUCTURES\L3 FREECELL\L3 FREECELL\MAIN.CPP
/c /ZI /nologo /W3 /WX- /Od /D _DEBUG /D _CONSOLE /D _UNICODE /D UNICODE /Gm /EHsc /RTC1 /MDd /GS /fp:precise /Zc:wchar_t /Zc:forScope /Zc:inline /Fo"X64\DEBUG\\" /Fd"X64\DEBUG\VC140.PDB" /Gd /TP C:\USERS\TOMMY\SOURCES\DATASTRUCTURES\L3 FREECELL\L3 FREECELL\MAIN.CPP
^C:\USERS\TOMMY\SOURCES\DATASTRUCTURES\L3 FREECELL\L3 FREECELL\PLAYAREA.CPP
/c /ZI /nologo /W3 /WX- /Od /D _DEBUG /D _CONSOLE /D _UNICODE /D UNICODE /Gm /EHsc /RTC1 /MDd /GS /fp:precise /Zc:wchar_t /Zc:forScope /Zc:inline /Fo"X64\DEBUG\\" /Fd"X64\DEBUG\VC140.PDB" /Gd /TP C:\USERS\TOMMY\SOURCES\DATASTRUCTURES\L3 FREECELL\L3 FREECELL\PLAYAREA.CPP
