^C:\USERS\TOMMY\SOURCES\DATASTRUCTURES\L4 AVL\L4 AVL\DEBUG\EXCEPTION.OBJ|C:\USERS\TOMMY\SOURCES\DATASTRUCTURES\L4 AVL\L4 AVL\DEBUG\STUB.OBJ
C:\USERS\TOMMY\SOURCES\DATASTRUCTURES\L4 AVL\DEBUG\L4 AVL.ILK
C:\USERS\TOMMY\SOURCES\DATASTRUCTURES\L4 AVL\DEBUG\L4 AVL.EXE
C:\USERS\TOMMY\SOURCES\DATASTRUCTURES\L4 AVL\DEBUG\L4 AVL.PDB
