^C:\USERS\TOMMY\SOURCE\REPOS\DATASTRUCTURES\L1 MINESWEEPER\L1 MINESWEEPER\BOARD.CPP
/c /ZI /nologo /W3 /WX- /sdl- /Od /D _DEBUG /D _CONSOLE /D _UNICODE /D UNICODE /Gm /EHsc /RTC1 /MDd /GS /fp:precise /Zc:wchar_t /Zc:forScope /Zc:inline /Fo"X64\DEBUG\\" /Fd"X64\DEBUG\VC140.PDB" /Gd /TP C:\USERS\TOMMY\SOURCE\REPOS\DATASTRUCTURES\L1 MINESWEEPER\L1 MINESWEEPER\BOARD.CPP
^C:\USERS\TOMMY\SOURCE\REPOS\DATASTRUCTURES\L1 MINESWEEPER\L1 MINESWEEPER\EXCEPTION.CPP
/c /ZI /nologo /W3 /WX- /sdl- /Od /D _DEBUG /D _CONSOLE /D _UNICODE /D UNICODE /Gm /EHsc /RTC1 /MDd /GS /fp:precise /Zc:wchar_t /Zc:forScope /Zc:inline /Fo"X64\DEBUG\\" /Fd"X64\DEBUG\VC140.PDB" /Gd /TP C:\USERS\TOMMY\SOURCE\REPOS\DATASTRUCTURES\L1 MINESWEEPER\L1 MINESWEEPER\EXCEPTION.CPP
^C:\USERS\TOMMY\SOURCE\REPOS\DATASTRUCTURES\L1 MINESWEEPER\L1 MINESWEEPER\MAIN.CPP
/c /ZI /nologo /W3 /WX- /sdl- /Od /D _DEBUG /D _CONSOLE /D _UNICODE /D UNICODE /Gm /EHsc /RTC1 /MDd /GS /fp:precise /Zc:wchar_t /Zc:forScope /Zc:inline /Fo"X64\DEBUG\\" /Fd"X64\DEBUG\VC140.PDB" /Gd /TP C:\USERS\TOMMY\SOURCE\REPOS\DATASTRUCTURES\L1 MINESWEEPER\L1 MINESWEEPER\MAIN.CPP
^C:\USERS\TOMMY\SOURCE\REPOS\DATASTRUCTURES\L1 MINESWEEPER\L1 MINESWEEPER\MINESWEEPER.CPP
/c /ZI /nologo /W3 /WX- /sdl- /Od /D _DEBUG /D _CONSOLE /D _UNICODE /D UNICODE /Gm /EHsc /RTC1 /MDd /GS /fp:precise /Zc:wchar_t /Zc:forScope /Zc:inline /Fo"X64\DEBUG\\" /Fd"X64\DEBUG\VC140.PDB" /Gd /TP C:\USERS\TOMMY\SOURCE\REPOS\DATASTRUCTURES\L1 MINESWEEPER\L1 MINESWEEPER\MINESWEEPER.CPP
^C:\USERS\TOMMY\SOURCES\DATASTRUCTURES\L1 MINESWEEPER\L1 MINESWEEPER\BOARD.CPP
/c /ZI /nologo /W3 /WX- /sdl- /Od /D _DEBUG /D _CONSOLE /D _UNICODE /D UNICODE /Gm /EHsc /RTC1 /MDd /GS /fp:precise /Zc:wchar_t /Zc:forScope /Zc:inline /Fo"X64\DEBUG\\" /Fd"X64\DEBUG\VC140.PDB" /Gd /TP C:\USERS\TOMMY\SOURCES\DATASTRUCTURES\L1 MINESWEEPER\L1 MINESWEEPER\BOARD.CPP
^C:\USERS\TOMMY\SOURCES\DATASTRUCTURES\L1 MINESWEEPER\L1 MINESWEEPER\EXCEPTION.CPP
/c /ZI /nologo /W3 /WX- /sdl- /Od /D _DEBUG /D _CONSOLE /D _UNICODE /D UNICODE /Gm /EHsc /RTC1 /MDd /GS /fp:precise /Zc:wchar_t /Zc:forScope /Zc:inline /Fo"X64\DEBUG\\" /Fd"X64\DEBUG\VC140.PDB" /Gd /TP C:\USERS\TOMMY\SOURCES\DATASTRUCTURES\L1 MINESWEEPER\L1 MINESWEEPER\EXCEPTION.CPP
^C:\USERS\TOMMY\SOURCES\DATASTRUCTURES\L1 MINESWEEPER\L1 MINESWEEPER\MAIN.CPP
/c /ZI /nologo /W3 /WX- /sdl- /Od /D _DEBUG /D _CONSOLE /D _UNICODE /D UNICODE /Gm /EHsc /RTC1 /MDd /GS /fp:precise /Zc:wchar_t /Zc:forScope /Zc:inline /Fo"X64\DEBUG\\" /Fd"X64\DEBUG\VC140.PDB" /Gd /TP C:\USERS\TOMMY\SOURCES\DATASTRUCTURES\L1 MINESWEEPER\L1 MINESWEEPER\MAIN.CPP
^C:\USERS\TOMMY\SOURCES\DATASTRUCTURES\L1 MINESWEEPER\L1 MINESWEEPER\MINESWEEPER.CPP
/c /ZI /nologo /W3 /WX- /sdl- /Od /D _DEBUG /D _CONSOLE /D _UNICODE /D UNICODE /Gm /EHsc /RTC1 /MDd /GS /fp:precise /Zc:wchar_t /Zc:forScope /Zc:inline /Fo"X64\DEBUG\\" /Fd"X64\DEBUG\VC140.PDB" /Gd /TP C:\USERS\TOMMY\SOURCES\DATASTRUCTURES\L1 MINESWEEPER\L1 MINESWEEPER\MINESWEEPER.CPP
