^C:\USERS\TOMMY\SOURCE\REPOS\DATASTRUCTURES\A4 ARRAY2D AGAIN\A4 ARRAY2D AGAIN\EXCEPTION.CPP
/c /ZI /nologo /W3 /WX- /Od /D _DEBUG /D _CONSOLE /D _UNICODE /D UNICODE /Gm /EHsc /RTC1 /MDd /GS /fp:precise /Zc:wchar_t /Zc:forScope /Zc:inline /Fo"X64\DEBUG\\" /Fd"X64\DEBUG\VC140.PDB" /Gd /TP C:\USERS\TOMMY\SOURCE\REPOS\DATASTRUCTURES\A4 ARRAY2D AGAIN\A4 ARRAY2D AGAIN\EXCEPTION.CPP
^C:\USERS\TOMMY\SOURCE\REPOS\DATASTRUCTURES\A4 ARRAY2D AGAIN\A4 ARRAY2D AGAIN\STUB.CPP
/c /ZI /nologo /W3 /WX- /Od /D _DEBUG /D _CONSOLE /D _UNICODE /D UNICODE /Gm /EHsc /RTC1 /MDd /GS /fp:precise /Zc:wchar_t /Zc:forScope /Zc:inline /Fo"X64\DEBUG\\" /Fd"X64\DEBUG\VC140.PDB" /Gd /TP C:\USERS\TOMMY\SOURCE\REPOS\DATASTRUCTURES\A4 ARRAY2D AGAIN\A4 ARRAY2D AGAIN\STUB.CPP
