^C:\USERS\TOMMY\SOURCE\REPOS\DATASTRUCTURES\A4 ARRAY2D AGAIN\A4 ARRAY2D AGAIN\EXCEPTION.CPP|C:\USERS\TOMMY\SOURCE\REPOS\DATASTRUCTURES\A4 ARRAY2D AGAIN\A4 ARRAY2D AGAIN\STUB.CPP
C:\USERS\TOMMY\SOURCE\REPOS\DATASTRUCTURES\A4 ARRAY2D AGAIN\A4 ARRAY2D AGAIN\X64\DEBUG\VC140.PDB
C:\USERS\TOMMY\SOURCE\REPOS\DATASTRUCTURES\A4 ARRAY2D AGAIN\A4 ARRAY2D AGAIN\X64\DEBUG\VC140.IDB
C:\USERS\TOMMY\SOURCE\REPOS\DATASTRUCTURES\A4 ARRAY2D AGAIN\A4 ARRAY2D AGAIN\X64\DEBUG\EXCEPTION.OBJ
C:\USERS\TOMMY\SOURCE\REPOS\DATASTRUCTURES\A4 ARRAY2D AGAIN\A4 ARRAY2D AGAIN\X64\DEBUG\STUB.OBJ
^C:\USERS\TOMMY\SOURCE\REPOS\DATASTRUCTURES\A4 ARRAY2D AGAIN\A4 ARRAY2D AGAIN\EXCEPTION.CPP
C:\USERS\TOMMY\SOURCE\REPOS\DATASTRUCTURES\A4 ARRAY2D AGAIN\A4 ARRAY2D AGAIN\X64\DEBUG\VC140.PDB
^C:\USERS\TOMMY\SOURCE\REPOS\DATASTRUCTURES\A4 ARRAY2D AGAIN\A4 ARRAY2D AGAIN\STUB.CPP
C:\USERS\TOMMY\SOURCE\REPOS\DATASTRUCTURES\A4 ARRAY2D AGAIN\A4 ARRAY2D AGAIN\X64\DEBUG\VC140.PDB
