^C:\USERS\TOMMY\SOURCES\DATASTRUCTURES\A9 LIST ITERATORS\A9 LIST ITERATORS\STUB.CPP
C:\USERS\TOMMY\SOURCES\DATASTRUCTURES\A9 LIST ITERATORS\A9 LIST ITERATORS\DEBUG\VC140.PDB
C:\USERS\TOMMY\SOURCES\DATASTRUCTURES\A9 LIST ITERATORS\A9 LIST ITERATORS\DEBUG\VC140.IDB
C:\USERS\TOMMY\SOURCES\DATASTRUCTURES\A9 LIST ITERATORS\A9 LIST ITERATORS\DEBUG\STUB.OBJ
