^C:\USERS\TOMMY\SOURCE\REPOS\DATASTRUCTURES\A7 QUEUE WARRAY\A7 QUEUE WARRAY\EXCEPTION.CPP|C:\USERS\TOMMY\SOURCE\REPOS\DATASTRUCTURES\A7 QUEUE WARRAY\A7 QUEUE WARRAY\MAIN.CPP
C:\USERS\TOMMY\SOURCE\REPOS\DATASTRUCTURES\A7 QUEUE WARRAY\A7 QUEUE WARRAY\DEBUG\VC140.PDB
C:\USERS\TOMMY\SOURCE\REPOS\DATASTRUCTURES\A7 QUEUE WARRAY\A7 QUEUE WARRAY\DEBUG\VC140.IDB
C:\USERS\TOMMY\SOURCE\REPOS\DATASTRUCTURES\A7 QUEUE WARRAY\A7 QUEUE WARRAY\DEBUG\EXCEPTION.OBJ
C:\USERS\TOMMY\SOURCE\REPOS\DATASTRUCTURES\A7 QUEUE WARRAY\A7 QUEUE WARRAY\DEBUG\MAIN.OBJ
^C:\USERS\TOMMY\SOURCE\REPOS\DATASTRUCTURES\A7 QUEUE WARRAY\A7 QUEUE WARRAY\EXCEPTION.CPP
C:\USERS\TOMMY\SOURCE\REPOS\DATASTRUCTURES\A7 QUEUE WARRAY\A7 QUEUE WARRAY\DEBUG\VC140.PDB
^C:\USERS\TOMMY\SOURCE\REPOS\DATASTRUCTURES\A7 QUEUE WARRAY\A7 QUEUE WARRAY\MAIN.CPP
C:\USERS\TOMMY\SOURCE\REPOS\DATASTRUCTURES\A7 QUEUE WARRAY\A7 QUEUE WARRAY\DEBUG\VC140.PDB
C:\USERS\TOMMY\SOURCE\REPOS\DATASTRUCTURES\A7 QUEUE WARRAY\A7 QUEUE WARRAY\DEBUG\VC140.IDB
C:\USERS\TOMMY\SOURCE\REPOS\DATASTRUCTURES\A7 QUEUE WARRAY\A7 QUEUE WARRAY\DEBUG\MAIN.OBJ
