^C:\USERS\TOMMY\SOURCES\DATASTRUCTURES\A4 ARRAY2D AGAIN\A4 ARRAY2D AGAIN\EXCEPTION.CPP|C:\USERS\TOMMY\SOURCES\DATASTRUCTURES\A4 ARRAY2D AGAIN\A4 ARRAY2D AGAIN\STUB.CPP
C:\USERS\TOMMY\SOURCES\DATASTRUCTURES\A4 ARRAY2D AGAIN\A4 ARRAY2D AGAIN\DEBUG\VC140.PDB
C:\USERS\TOMMY\SOURCES\DATASTRUCTURES\A4 ARRAY2D AGAIN\A4 ARRAY2D AGAIN\DEBUG\VC140.IDB
C:\USERS\TOMMY\SOURCES\DATASTRUCTURES\A4 ARRAY2D AGAIN\A4 ARRAY2D AGAIN\DEBUG\EXCEPTION.OBJ
^C:\USERS\TOMMY\SOURCES\DATASTRUCTURES\A4 ARRAY2D AGAIN\A4 ARRAY2D AGAIN\EXCEPTION.CPP
C:\USERS\TOMMY\SOURCES\DATASTRUCTURES\A4 ARRAY2D AGAIN\A4 ARRAY2D AGAIN\DEBUG\VC140.PDB
^C:\USERS\TOMMY\SOURCES\DATASTRUCTURES\A4 ARRAY2D AGAIN\A4 ARRAY2D AGAIN\STUB.CPP
C:\USERS\TOMMY\SOURCES\DATASTRUCTURES\A4 ARRAY2D AGAIN\A4 ARRAY2D AGAIN\DEBUG\VC140.PDB
C:\USERS\TOMMY\SOURCES\DATASTRUCTURES\A4 ARRAY2D AGAIN\A4 ARRAY2D AGAIN\DEBUG\VC140.IDB
C:\USERS\TOMMY\SOURCES\DATASTRUCTURES\A4 ARRAY2D AGAIN\A4 ARRAY2D AGAIN\DEBUG\STUB.OBJ
