^C:\USERS\TOMMY\SOURCES\DATASTRUCTURES\A10 BINARY SEARCH TREE\A10 BINARY SEARCH TREE\TESTSTUB.CPP
C:\USERS\TOMMY\SOURCES\DATASTRUCTURES\A10 BINARY SEARCH TREE\A10 BINARY SEARCH TREE\DEBUG\VC140.PDB
C:\USERS\TOMMY\SOURCES\DATASTRUCTURES\A10 BINARY SEARCH TREE\A10 BINARY SEARCH TREE\DEBUG\VC140.IDB
C:\USERS\TOMMY\SOURCES\DATASTRUCTURES\A10 BINARY SEARCH TREE\A10 BINARY SEARCH TREE\DEBUG\TESTSTUB.OBJ
^C:\USERS\TOMMY\SOURCES\DATASTRUCTURES\A10 BINARY SEARCH TREE\A10 BINARY SEARCH TREE\EXCEPTION.CPP|C:\USERS\TOMMY\SOURCES\DATASTRUCTURES\A10 BINARY SEARCH TREE\A10 BINARY SEARCH TREE\TESTSTUB.CPP
C:\USERS\TOMMY\SOURCES\DATASTRUCTURES\A10 BINARY SEARCH TREE\A10 BINARY SEARCH TREE\DEBUG\VC140.PDB
C:\USERS\TOMMY\SOURCES\DATASTRUCTURES\A10 BINARY SEARCH TREE\A10 BINARY SEARCH TREE\DEBUG\VC140.IDB
C:\USERS\TOMMY\SOURCES\DATASTRUCTURES\A10 BINARY SEARCH TREE\A10 BINARY SEARCH TREE\DEBUG\TESTSTUB.OBJ
C:\USERS\TOMMY\SOURCES\DATASTRUCTURES\A10 BINARY SEARCH TREE\A10 BINARY SEARCH TREE\DEBUG\EXCEPTION.OBJ
^C:\USERS\TOMMY\SOURCES\DATASTRUCTURES\A10 BINARY SEARCH TREE\A10 BINARY SEARCH TREE\EXCEPTION.CPP
C:\USERS\TOMMY\SOURCES\DATASTRUCTURES\A10 BINARY SEARCH TREE\A10 BINARY SEARCH TREE\DEBUG\VC140.PDB
