^C:\USERS\TOMMY\SOURCES\DATASTRUCTURES\A10 BINARY SEARCH TREE\A10 BINARY SEARCH TREE\DEBUG\EXCEPTION.OBJ|C:\USERS\TOMMY\SOURCES\DATASTRUCTURES\A10 BINARY SEARCH TREE\A10 BINARY SEARCH TREE\DEBUG\TESTSTUB.OBJ
C:\USERS\TOMMY\SOURCES\DATASTRUCTURES\A10 BINARY SEARCH TREE\DEBUG\A10 BINARY SEARCH TREE.ILK
C:\USERS\TOMMY\SOURCES\DATASTRUCTURES\A10 BINARY SEARCH TREE\DEBUG\A10 BINARY SEARCH TREE.EXE
C:\USERS\TOMMY\SOURCES\DATASTRUCTURES\A10 BINARY SEARCH TREE\DEBUG\A10 BINARY SEARCH TREE.PDB
